{
  "meta": {
    "success": true,
    "message": "Retrieved successfully",
    "code": 200
  },
  "data": {
    "current_page": 1,
    "data": [
      {
        "id": "YmFzZTY0OjZsYzFKSTdWMnpXMThGSGdZSlhZU0pwYVJuTXNXQTRjK3JVQjJtdEpjT2M9MDM3NDhhYmUtMWY5Ni00YzIxLWExMWItZjFhN2YxNGViMDBm",
        "name": "Yayasan Hidayanto Sudiati Tbk",
        "code": "HSI725",
        "address": "Psr. Barat No. 777, Administrasi Jakarta Utara 12808, Riau",
        "phone": "(+62) 664 4176 4511",
        "email": "anita.namaga@example.com"
      },
      {
        "id": "YmFzZTY0OjZsYzFKSTdWMnpXMThGSGdZSlhZU0pwYVJuTXNXQTRjK3JVQjJtdEpjT2M9MDY3NWU0M2EtYzA2NC00ZjUwLWI3MDMtMmQzYTkwYzU4YzRm",
        "name": "PT Laksmiwati Andriani Tbk",
        "code": "LAI390",
        "address": "Ki. Aceh No. 134, Banda Aceh 68616, Sulteng",
        "phone": "0840 7255 125",
        "email": "bella80@example.net"
      },
      {
        "id": "YmFzZTY0OjZsYzFKSTdWMnpXMThGSGdZSlhZU0pwYVJuTXNXQTRjK3JVQjJtdEpjT2M9MTM3OWIyYWMtNzlhMC00ZGVlLThhNzQtNmI1ZGU2MGFhNjI5",
        "name": "PT Maryadi Prayoga",
        "code": "MPA456",
        "address": "Jr. Baan No. 707, Denpasar 95695, Jateng",
        "phone": "(+62) 525 5436 8581",
        "email": "suci23@example.net"
      },
      {
        "id": "YmFzZTY0OjZsYzFKSTdWMnpXMThGSGdZSlhZU0pwYVJuTXNXQTRjK3JVQjJtdEpjT2M9MjQ2ZTIyOGQtNTNkMC00MGQ5LTkwMzUtM2UzOWUwODgxYTA5",
        "name": "Perum Suryatmi Hartati Tbk",
        "code": "PSH291",
        "address": "Jr. Baik No. 673, Mataram 58452, Malut",
        "phone": "0773 6901 0815",
        "email": "anita79@example.net"
      },
      {
        "id": "YmFzZTY0OjZsYzFKSTdWMnpXMThGSGdZSlhZU0pwYVJuTXNXQTRjK3JVQjJtdEpjT2M9MjkxMDc4NTQtZjc4Ny00NjM5LThlZGQtYmY4NzcyMWFmMDVk",
        "name": "PT Nasyidah Nasyidah",
        "code": "NNH511",
        "address": "Ds. Padma No. 603, Sukabumi 41558, Sulbar",
        "phone": "0211 7992 395",
        "email": "elon27@example.net"
      },
      {
        "id": "YmFzZTY0OjZsYzFKSTdWMnpXMThGSGdZSlhZU0pwYVJuTXNXQTRjK3JVQjJtdEpjT2M9MmJkYjcxZDAtMWNmNC00MzkxLThjZTYtYmUwMDUzNDA2NzU4",
        "name": "Perum Winarsih (Persero) Tbk",
        "code": "PWH960",
        "address": "Gg. Ki Hajar Dewantara No. 710, Metro 80855, Riau",
        "phone": "(+62) 629 1116 317",
        "email": "yjailani@example.com"
      },
      {
        "id": "YmFzZTY0OjZsYzFKSTdWMnpXMThGSGdZSlhZU0pwYVJuTXNXQTRjK3JVQjJtdEpjT2M9MzNkMzIwODItODlhNC00ZTg0LWJjYmMtZTkxZmVlYmIwNjUz",
        "name": "PJ Yulianti Adriansyah (Persero) Tbk",
        "code": "PYA337",
        "address": "Ki. Gardujati No. 442, Sabang 74951, NTT",
        "phone": "(+62) 21 8619 1634",
        "email": "agunawan@example.com"
      },
      {
        "id": "YmFzZTY0OjZsYzFKSTdWMnpXMThGSGdZSlhZU0pwYVJuTXNXQTRjK3JVQjJtdEpjT2M9MzZjYjdmYzUtNGU1YS00ZTgxLWFkNzgtMDIzMzQwNjU1NmZk",
        "name": "PJ Wasita Prasasta",
        "code": "PWP476",
        "address": "Ds. Ki Hajar Dewantara No. 561, Bogor 79714, Kalteng",
        "phone": "(+62) 572 0219 699",
        "email": "hasim46@example.net"
      },
      {
        "id": "YmFzZTY0OjZsYzFKSTdWMnpXMThGSGdZSlhZU0pwYVJuTXNXQTRjK3JVQjJtdEpjT2M9MzkzOTRmZGQtYTc0NS00ODViLThiOWUtMjRhMzg2MTZhZDNm",
        "name": "PT Winarno Mansur",
        "code": "WMR456",
        "address": "Ki. Cikutra Timur No. 863, Langsa 48572, Papua",
        "phone": "(+62) 553 1854 5672",
        "email": "lukman40@example.net"
      },
      {
        "id": "YmFzZTY0OjZsYzFKSTdWMnpXMThGSGdZSlhZU0pwYVJuTXNXQTRjK3JVQjJtdEpjT2M9Mzk3MzM2NzktOTI3OS00NGE5LTg5ODctZTc2YWNkMTc2NTdi",
        "name": "PJ Lazuardi",
        "code": "PLI956",
        "address": "Gg. Baranangsiang No. 145, Denpasar 57393, Pabar",
        "phone": "0503 6424 1122",
        "email": "bala72@example.org"
      }
    ],
    "first_page_url": "https://service.ciputramitrahospital.id/api/companies?page=1",
    "last_page": 5,
    "last_page_url": "https://service.ciputramitrahospital.id/api/companies?page=5",
    "next_page_url": "https://service.ciputramitrahospital.id/api/companies?page=2",
    "prev_page_url": null,
    "total": 47,
    "per_page": 10,
    "from": 1,
    "to": 10
  }
}
